{
	"info": {
		"_postman_id": "0e485173-760f-41f9-a455-bbedc0011dfb",
		"name": "PUT_Reference",
		"schema": "https://schema.getpostman.com/json/collection/v2.1.0/collection.json",
		"_exporter_id": "23211315"
	},
	"item": [
		{
			"name": "PUT_TC1",
			"event": [
				{
					"listen": "test",
					"script": {
						"exec": [
							"pm.test(\"Status code is 200\", function () {\r",
							"    pm.response.to.have.status(200);\r",
							"});\r",
							"\r",
							"var requestBody = pm.request.body.raw;\r",
							"// console.log(requestBody);\r",
							"requestBody = JSON.parse(requestBody);\r",
							"\r",
							"var req_name = requestBody.name;\r",
							"var req_job = requestBody.job;\r",
							"\r",
							"\r",
							"var responseBody = pm.response.json();\r",
							"// console.log(responseBody);\r",
							"\r",
							"var res_name = responseBody.name;\r",
							"// console.log(res_name)\r",
							"var res_job = responseBody.job;\r",
							"// console.log(res_job)\r",
							"\r",
							"\r",
							"pm.test(\"Validation for responsebody : name\",function(){\r",
							"    pm.expect(res_name).to.eqls(req_name);\r",
							"})\r",
							"pm.test(\"Validation for responsebody : job\",function(){\r",
							"    pm.expect(res_job).to.eqls(req_job);\r",
							"})\r",
							"\r",
							"var res_updatedAt = responseBody.updatedAt;\r",
							"var updatedDate = res_updatedAt.slice(0,10);\r",
							"// console.log(updatedDate)\r",
							"// console.log(res_updatedAt)\r",
							"var d = new Date();\r",
							"// console.log(d)\r",
							"\r",
							"var newdate = d.toISOString();\r",
							"// console.log(newdate)\r",
							"var generatedDate = newdate.slice(0,10);\r",
							"// console.log(generatedDate)\r",
							"\r",
							"pm.test(\"Validation for responsebody : updatedAt \",function(){\r",
							"    pm.expect(updatedDate).to.eqls(generatedDate);\r",
							"})\r",
							"\r",
							""
						],
						"type": "text/javascript"
					}
				}
			],
			"request": {
				"method": "PUT",
				"header": [],
				"body": {
					"mode": "raw",
					"raw": "{\r\n    \"name\": \"morpheus\",\r\n    \"job\": \"zion resident\"\r\n}",
					"options": {
						"raw": {
							"language": "json"
						}
					}
				},
				"url": {
					"raw": "{{put_url}}",
					"host": [
						"{{put_url}}"
					]
				}
			},
			"response": []
		}
	]
}