{
	"id": "ebcf6f0c-1976-447f-b5bf-c4228bbd3096",
	"name": "post_get_Env",
	"values": [
		{
			"key": "base_url",
			"value": "https://reqres.in",
			"type": "default",
			"enabled": true
		},
		{
			"key": "post_url",
			"value": "{{base_url}}/api/users/2",
			"type": "default",
			"enabled": true
		},
		{
			"key": "put_url",
			"value": "{{base_url}}/api/users/2",
			"type": "default",
			"enabled": true
		},
		{
			"key": "patch_url",
			"value": "{{base_url}}/api/users/2",
			"type": "default",
			"enabled": true
		},
		{
			"key": "delete_url",
			"value": "{{base_url}}/api/users/2",
			"type": "default",
			"enabled": true
		},
		{
			"key": "get_url",
			"value": "{{base_url}}/api/unknown/2",
			"type": "default",
			"enabled": true
		},
		{
			"key": "counter",
			"value": "",
			"type": "any",
			"enabled": true
		}
	],
	"_postman_variable_scope": "environment",
	"_postman_exported_at": "2023-10-23T10:44:00.850Z",
	"_postman_exported_using": "Postman/10.19.0"
}