{
	"info": {
		"_postman_id": "9fab782d-d730-49d4-a09d-d9a6d7e92359",
		"name": "GET_Reference",
		"schema": "https://schema.getpostman.com/json/collection/v2.1.0/collection.json",
		"_exporter_id": "23211315"
	},
	"item": [
		{
			"name": "GET_TC1",
			"event": [
				{
					"listen": "test",
					"script": {
						"exec": [
							"pm.test(\"Status code is 200\", function () {\r",
							"    pm.response.to.have.status(200);\r",
							"});\r",
							"\r",
							"//Validation for response body\r",
							"\r",
							"var responseBody = pm.response.json();\r",
							"console.log(responseBody);\r",
							"\r",
							"var res_id = responseBody.data.id;\r",
							"console.log(res_id)\r",
							"\r",
							"var res_name = responseBody.data.name;\r",
							"console.log(res_name)\r",
							"\r",
							"var res_year = responseBody.data.year;\r",
							"console.log(res_year)\r",
							"\r",
							"var res_color = responseBody.data.color;\r",
							"console.log(res_color)\r",
							"\r",
							"\r",
							"var res_pantoneValue = responseBody.data.pantone_value;\r",
							"console.log(res_pantoneValue)\r",
							"\r",
							"\r",
							"pm.test(\"Validation for response body : id \",function(){\r",
							"    pm.expect(res_id).to.eqls(2);\r",
							"})\r",
							"\r",
							"pm.test(\"Validation for response body : name\",function(){\r",
							"       pm.expect(res_name).to.eqls(\"fuchsia rose\");\r",
							"})\r",
							"\r",
							"pm.test(\"Validation for response body : year\",function(){\r",
							"    pm.expect(res_year).to.eqls(2001);\r",
							"   \r",
							"})\r",
							"pm.test(\"Validation for response body : color\",function(){\r",
							"       pm.expect(res_color).to.eqls(\"#C74375\");\r",
							"})\r",
							"\r",
							"pm.test(\"Validation for response body : pantoneValue\",function(){\r",
							"       pm.expect(res_pantoneValue).to.eqls(\"17-2031\");\r",
							"\r",
							"})"
						],
						"type": "text/javascript"
					}
				}
			],
			"request": {
				"auth": {
					"type": "bearer"
				},
				"method": "GET",
				"header": [],
				"url": {
					"raw": "https://reqres.in/api/unknown/2",
					"protocol": "https",
					"host": [
						"reqres",
						"in"
					],
					"path": [
						"api",
						"unknown",
						"2"
					]
				}
			},
			"response": []
		},
		{
			"name": "GET_TC_USING_FOR_LOOP",
			"event": [
				{
					"listen": "test",
					"script": {
						"exec": [
							"\r",
							"//Validation for response body\r",
							"\r",
							"var responseBody = pm.response.json();\r",
							"// console.log(responseBody);\r",
							"\r",
							"var count_per_page = responseBody.per_page;\r",
							"// console.log(count_per_page);\r",
							"var exp_id_array = [7,8,9,10,11,12];\r",
							"\r",
							"var exp_email_array = [\"michael.lawson@reqres.in\",\"lindsay.ferguson@reqres.in\",\"tobias.funke@reqres.in\",\"byron.fields@reqres.in\",\"george.edwards@reqres.in\",\"rachel.howell@reqres.in\"];\r",
							"\r",
							"var exp_first_name_array = [\"Michael\",\"Lindsay\",\"Tobias\",\"Byron\",\"George\",\"Rachel\"];\r",
							"\r",
							"var exp_last_name_array = [\"Lawson\",\"Ferguson\",\"Funke\",\"Fields\",\"Edwards\",\"Howell\"];\r",
							"\r",
							"var exp_avatar_array = [\"https://reqres.in/img/faces/7-image.jpg\",\"https://reqres.in/img/faces/8-image.jpg\",\"https://reqres.in/img/faces/9-image.jpg\",\"https://reqres.in/img/faces/10-image.jpg\",\"https://reqres.in/img/faces/11-image.jpg\",\"https://reqres.in/img/faces/12-image.jpg\"];\r",
							"\r",
							"for(i=0;i<count_per_page;i++){\r",
							"    pm.test(\"validate the id at index : \" +i , function(){\r",
							"       var res_id = responseBody.data[i].id;\r",
							"       var req_id = exp_id_array[i];\r",
							"       pm.expect(res_id).to.eqls(req_id);\r",
							"    })\r",
							"\r",
							"  pm.test(\"validate the email at index : \" +i , function(){\r",
							"       var res_email = responseBody.data[i].email;\r",
							"       var req_email = exp_email_array[i];\r",
							"       pm.expect(res_email).to.eqls(req_email);\r",
							"    })\r",
							"   \r",
							" pm.test(\"validate the first_name at index : \" +i , function(){\r",
							"       var res_first_name = responseBody.data[i].first_name;\r",
							"       var req_first_name = exp_first_name_array[i];\r",
							"       pm.expect(res_first_name).to.eqls(req_first_name);\r",
							"    })\r",
							"   \r",
							" pm.test(\"validate the last_name at index : \" +i , function(){\r",
							"       var res_last_name = responseBody.data[i].last_name;\r",
							"       var req_last_name = exp_last_name_array[i];\r",
							"       pm.expect(res_last_name).to.eqls(req_last_name);\r",
							"    })\r",
							"    \r",
							"\r",
							" pm.test(\"validate the avatar at index : \" +i , function(){\r",
							"       var res_avatar = responseBody.data[i].avatar;\r",
							"       var req_avatar = exp_avatar_array[i];\r",
							"       pm.expect(res_avatar).to.eqls(req_avatar);\r",
							"    })\r",
							"\r",
							" }\r",
							"\r",
							""
						],
						"type": "text/javascript"
					}
				}
			],
			"request": {
				"method": "GET",
				"header": [],
				"url": {
					"raw": "https://reqres.in/api/users?page=2",
					"protocol": "https",
					"host": [
						"reqres",
						"in"
					],
					"path": [
						"api",
						"users"
					],
					"query": [
						{
							"key": "page",
							"value": "2"
						}
					]
				}
			},
			"response": []
		},
		{
			"name": "GET_TC_USING_WHILE_LOOP",
			"event": [
				{
					"listen": "test",
					"script": {
						"exec": [
							"\r",
							"//Validation for response body\r",
							"\r",
							"var responseBody = pm.response.json();\r",
							"// console.log(responseBody);\r",
							"\r",
							"var count_per_page = responseBody.per_page;\r",
							"// console.log(count_per_page);\r",
							"\r",
							"var exp_id_array = [7,8,9,10,11,12];\r",
							"\r",
							"var exp_email_array = [\"michael.lawson@reqres.in\",\"lindsay.ferguson@reqres.in\",\"tobias.funke@reqres.in\",\"byron.fields@reqres.in\",\"george.edwards@reqres.in\",\"rachel.howell@reqres.in\"];\r",
							"\r",
							"var exp_first_name_array = [\"Michael\",\"Lindsay\",\"Tobias\",\"Byron\",\"George\",\"Rachel\"];\r",
							"\r",
							"var exp_last_name_array = [\"Lawson\",\"Ferguson\",\"Funke\",\"Fields\",\"Edwards\",\"Howell\"];\r",
							"\r",
							"var exp_avatar_array = [\"https://reqres.in/img/faces/7-image.jpg\",\"https://reqres.in/img/faces/8-image.jpg\",\"https://reqres.in/img/faces/9-image.jpg\",\"https://reqres.in/img/faces/10-image.jpg\",\"https://reqres.in/img/faces/11-image.jpg\",\"https://reqres.in/img/faces/12-image.jpg\"];\r",
							"\r",
							"var i = 0;\r",
							"\r",
							"while(i<count_per_page){\r",
							"    pm.test(\"validate the id at index : \" +i , function(){\r",
							"var data_id = responseBody.data[i].id;\r",
							"pm.expect(data_id).to.eqls(exp_id_array[i]);\r",
							"    })\r",
							"\r",
							" pm.test(\"validate the email at index : \" +i , function(){\r",
							"    var data_email = responseBody.data[i].email;\r",
							"    pm.expect(data_email).to.eqls(exp_email_array[i]);\r",
							"    })\r",
							"\r",
							" pm.test(\"validate the first_name at index : \" +i , function(){\r",
							"     var data_first_name = responseBody.data[i].first_name;\r",
							"    pm.expect(data_first_name).to.eqls(exp_first_name_array[i]);\r",
							"    })\r",
							"  \r",
							"    \r",
							"pm.test(\"validate the last_name at index : \" +i , function(){\r",
							"        var data_last_name = responseBody.data[i].last_name;\r",
							"    pm.expect(data_last_name).to.eqls(exp_last_name_array[i]);\r",
							"    })\r",
							"  \r",
							"pm.test(\"validate the avatar at index : \" +i , function(){\r",
							"        var data_avatar = responseBody.data[i].avatar;\r",
							"    pm.expect(data_avatar).to.eqls(exp_avatar_array[i]);\r",
							"    })\r",
							"    \r",
							"    i++;\r",
							"}\r",
							""
						],
						"type": "text/javascript"
					}
				}
			],
			"request": {
				"method": "GET",
				"header": [],
				"url": {
					"raw": "https://reqres.in/api/users?page=2",
					"protocol": "https",
					"host": [
						"reqres",
						"in"
					],
					"path": [
						"api",
						"users"
					],
					"query": [
						{
							"key": "page",
							"value": "2"
						}
					]
				}
			},
			"response": []
		}
	]
}